{
    "D:\\Platzi\\hn-api\\utils\\testServer.js": {
        "path": "D:\\Platzi\\hn-api\\utils\\testServer.js",
        "statementMap": {
            "0": {
                "start": { "line": 1, "column": 16 },
                "end": { "line": 1, "column": 34 }
            },
            "1": {
                "start": { "line": 2, "column": 18 },
                "end": { "line": 2, "column": 38 }
            },
            "2": {
                "start": { "line": 3, "column": 48 },
                "end": { "line": 3, "column": 86 }
            },
            "3": {
                "start": { "line": 4, "column": 24 },
                "end": { "line": 4, "column": 64 }
            },
            "4": {
                "start": { "line": 7, "column": 16 },
                "end": { "line": 7, "column": 25 }
            },
            "5": {
                "start": { "line": 8, "column": 4 },
                "end": { "line": 8, "column": 28 }
            },
            "6": {
                "start": { "line": 10, "column": 4 },
                "end": { "line": 10, "column": 15 }
            },
            "7": {
                "start": { "line": 13, "column": 4 },
                "end": { "line": 13, "column": 29 }
            },
            "8": {
                "start": { "line": 15, "column": 4 },
                "end": { "line": 15, "column": 23 }
            },
            "9": {
                "start": { "line": 16, "column": 4 },
                "end": { "line": 16, "column": 24 }
            },
            "10": {
                "start": { "line": 17, "column": 4 },
                "end": { "line": 17, "column": 26 }
            },
            "11": {
                "start": { "line": 19, "column": 4 },
                "end": { "line": 19, "column": 26 }
            },
            "12": {
                "start": { "line": 22, "column": 0 },
                "end": { "line": 22, "column": 28 }
            }
        },
        "fnMap": {
            "0": {
                "name": "testServer",
                "decl": {
                    "start": { "line": 6, "column": 9 },
                    "end": { "line": 6, "column": 19 }
                },
                "loc": {
                    "start": { "line": 6, "column": 26 },
                    "end": { "line": 20, "column": 1 }
                },
                "line": 6
            }
        },
        "branchMap": {},
        "s": {
            "0": 1,
            "1": 1,
            "2": 1,
            "3": 1,
            "4": 2,
            "5": 2,
            "6": 2,
            "7": 2,
            "8": 2,
            "9": 2,
            "10": 2,
            "11": 2,
            "12": 1
        },
        "f": { "0": 2 },
        "b": {},
        "_coverageSchema": "1a1c01bbd47fc00a2c39e90264f33305004495a9",
        "hash": "636f9e1abc5916462686b1bf82b43842c0469437",
        "contentHash": "3fcd28e1507be2ed7a1450e11c49c33e63d5fad0acb32035e5684a143ecd58ae"
    },
    "D:\\Platzi\\hn-api\\utils\\middlewares\\errorHandlers.js": {
        "path": "D:\\Platzi\\hn-api\\utils\\middlewares\\errorHandlers.js",
        "statementMap": {
            "0": {
                "start": { "line": 1, "column": 15 },
                "end": { "line": 1, "column": 44 }
            },
            "1": {
                "start": { "line": 2, "column": 13 },
                "end": { "line": 2, "column": 34 }
            },
            "2": {
                "start": { "line": 5, "column": 4 },
                "end": { "line": 7, "column": 5 }
            },
            "3": {
                "start": { "line": 6, "column": 8 },
                "end": { "line": 6, "column": 35 }
            },
            "4": {
                "start": { "line": 9, "column": 4 },
                "end": { "line": 9, "column": 17 }
            },
            "5": {
                "start": { "line": 13, "column": 4 },
                "end": { "line": 13, "column": 21 }
            },
            "6": {
                "start": { "line": 14, "column": 4 },
                "end": { "line": 14, "column": 14 }
            },
            "7": {
                "start": { "line": 18, "column": 4 },
                "end": { "line": 20, "column": 5 }
            },
            "8": {
                "start": { "line": 19, "column": 8 },
                "end": { "line": 19, "column": 42 }
            },
            "9": {
                "start": { "line": 21, "column": 4 },
                "end": { "line": 21, "column": 14 }
            },
            "10": {
                "start": { "line": 26, "column": 47 },
                "end": { "line": 26, "column": 50 }
            },
            "11": {
                "start": { "line": 28, "column": 4 },
                "end": { "line": 28, "column": 27 }
            },
            "12": {
                "start": { "line": 29, "column": 4 },
                "end": { "line": 29, "column": 49 }
            },
            "13": {
                "start": { "line": 32, "column": 0 },
                "end": { "line": 36, "column": 1 }
            }
        },
        "fnMap": {
            "0": {
                "name": "withErrorStack",
                "decl": {
                    "start": { "line": 4, "column": 9 },
                    "end": { "line": 4, "column": 23 }
                },
                "loc": {
                    "start": { "line": 4, "column": 37 },
                    "end": { "line": 10, "column": 1 }
                },
                "line": 4
            },
            "1": {
                "name": "logErrors",
                "decl": {
                    "start": { "line": 12, "column": 9 },
                    "end": { "line": 12, "column": 18 }
                },
                "loc": {
                    "start": { "line": 12, "column": 39 },
                    "end": { "line": 15, "column": 1 }
                },
                "line": 12
            },
            "2": {
                "name": "wrapErrors",
                "decl": {
                    "start": { "line": 17, "column": 9 },
                    "end": { "line": 17, "column": 19 }
                },
                "loc": {
                    "start": { "line": 17, "column": 40 },
                    "end": { "line": 22, "column": 1 }
                },
                "line": 17
            },
            "3": {
                "name": "errorHandler",
                "decl": {
                    "start": { "line": 24, "column": 9 },
                    "end": { "line": 24, "column": 21 }
                },
                "loc": {
                    "start": { "line": 24, "column": 42 },
                    "end": { "line": 30, "column": 1 }
                },
                "line": 24
            }
        },
        "branchMap": {
            "0": {
                "loc": {
                    "start": { "line": 5, "column": 4 },
                    "end": { "line": 7, "column": 5 }
                },
                "type": "if",
                "locations": [
                    {
                        "start": { "line": 5, "column": 4 },
                        "end": { "line": 7, "column": 5 }
                    },
                    {
                        "start": { "line": 5, "column": 4 },
                        "end": { "line": 7, "column": 5 }
                    }
                ],
                "line": 5
            },
            "1": {
                "loc": {
                    "start": { "line": 18, "column": 4 },
                    "end": { "line": 20, "column": 5 }
                },
                "type": "if",
                "locations": [
                    {
                        "start": { "line": 18, "column": 4 },
                        "end": { "line": 20, "column": 5 }
                    },
                    {
                        "start": { "line": 18, "column": 4 },
                        "end": { "line": 20, "column": 5 }
                    }
                ],
                "line": 18
            }
        },
        "s": {
            "0": 1,
            "1": 1,
            "2": 0,
            "3": 0,
            "4": 0,
            "5": 0,
            "6": 0,
            "7": 0,
            "8": 0,
            "9": 0,
            "10": 0,
            "11": 0,
            "12": 0,
            "13": 1
        },
        "f": { "0": 0, "1": 0, "2": 0, "3": 0 },
        "b": { "0": [0, 0], "1": [0, 0] },
        "_coverageSchema": "1a1c01bbd47fc00a2c39e90264f33305004495a9",
        "hash": "2df283284c47a064e83567e39b8062cec3675625",
        "contentHash": "1f40fcc36a8dcc497266a17d2b2c44ff26f13f78b5970d6fda2264121b7cf986"
    },
    "D:\\Platzi\\hn-api\\utils\\middlewares\\notFoundHandler.js": {
        "path": "D:\\Platzi\\hn-api\\utils\\middlewares\\notFoundHandler.js",
        "statementMap": {
            "0": {
                "start": { "line": 1, "column": 13 },
                "end": { "line": 1, "column": 34 }
            },
            "1": {
                "start": { "line": 7, "column": 8 },
                "end": { "line": 7, "column": 23 }
            },
            "2": {
                "start": { "line": 9, "column": 4 },
                "end": { "line": 9, "column": 41 }
            },
            "3": {
                "start": { "line": 12, "column": 0 },
                "end": { "line": 12, "column": 33 }
            }
        },
        "fnMap": {
            "0": {
                "name": "notFoundHandler",
                "decl": {
                    "start": { "line": 3, "column": 9 },
                    "end": { "line": 3, "column": 24 }
                },
                "loc": {
                    "start": { "line": 3, "column": 34 },
                    "end": { "line": 10, "column": 1 }
                },
                "line": 3
            }
        },
        "branchMap": {},
        "s": { "0": 1, "1": 0, "2": 0, "3": 1 },
        "f": { "0": 0 },
        "b": {},
        "_coverageSchema": "1a1c01bbd47fc00a2c39e90264f33305004495a9",
        "hash": "7c1c78818854e36fff229d3192460afa1313bff8",
        "contentHash": "16c1be84c6a43e0d34c1eda347a64eb2be99b522a584e6042c9cb1af3e2a8a00"
    },
    "D:\\Platzi\\hn-api\\utils\\mocks\\api.js": {
        "path": "D:\\Platzi\\hn-api\\utils\\mocks\\api.js",
        "statementMap": {
            "0": {
                "start": { "line": 1, "column": 18 },
                "end": { "line": 81, "column": 1 }
            },
            "1": {
                "start": { "line": 83, "column": 24 },
                "end": { "line": 83, "column": 54 }
            },
            "2": {
                "start": { "line": 83, "column": 43 },
                "end": { "line": 83, "column": 53 }
            },
            "3": {
                "start": { "line": 87, "column": 8 },
                "end": { "line": 87, "column": 42 }
            },
            "4": {
                "start": { "line": 91, "column": 8 },
                "end": { "line": 91, "column": 48 }
            },
            "5": {
                "start": { "line": 95, "column": 0 },
                "end": { "line": 99, "column": 1 }
            }
        },
        "fnMap": {
            "0": {
                "name": "(anonymous_0)",
                "decl": {
                    "start": { "line": 83, "column": 38 },
                    "end": { "line": 83, "column": 39 }
                },
                "loc": {
                    "start": { "line": 83, "column": 43 },
                    "end": { "line": 83, "column": 53 }
                },
                "line": 83
            },
            "1": {
                "name": "(anonymous_1)",
                "decl": {
                    "start": { "line": 86, "column": 4 },
                    "end": { "line": 86, "column": 5 }
                },
                "loc": {
                    "start": { "line": 86, "column": 20 },
                    "end": { "line": 88, "column": 5 }
                },
                "line": 86
            },
            "2": {
                "name": "(anonymous_2)",
                "decl": {
                    "start": { "line": 90, "column": 4 },
                    "end": { "line": 90, "column": 5 }
                },
                "loc": {
                    "start": { "line": 90, "column": 23 },
                    "end": { "line": 92, "column": 5 }
                },
                "line": 90
            }
        },
        "branchMap": {},
        "s": { "0": 1, "1": 1, "2": 2, "3": 0, "4": 0, "5": 1 },
        "f": { "0": 2, "1": 0, "2": 0 },
        "b": {},
        "_coverageSchema": "1a1c01bbd47fc00a2c39e90264f33305004495a9",
        "hash": "a3de43f40cd2137cf3080af670d80131d6159159",
        "contentHash": "9881674b5accd124cf2b0c8b11027663be2433a1142122a490833586ada474b9"
    },
    "D:\\Platzi\\hn-api\\services\\api.js": {
        "path": "D:\\Platzi\\hn-api\\services\\api.js",
        "statementMap": {
            "0": {
                "start": { "line": 1, "column": 17 },
                "end": { "line": 1, "column": 40 }
            },
            "1": {
                "start": { "line": 2, "column": 14 },
                "end": { "line": 2, "column": 30 }
            },
            "2": {
                "start": { "line": 6, "column": 8 },
                "end": { "line": 6, "column": 34 }
            },
            "3": {
                "start": { "line": 7, "column": 8 },
                "end": { "line": 7, "column": 38 }
            },
            "4": {
                "start": { "line": 12, "column": 22 },
                "end": { "line": 18, "column": 9 }
            },
            "5": {
                "start": { "line": 20, "column": 22 },
                "end": { "line": 20, "column": 70 }
            },
            "6": {
                "start": { "line": 22, "column": 8 },
                "end": { "line": 22, "column": 27 }
            },
            "7": {
                "start": { "line": 27, "column": 19 },
                "end": { "line": 27, "column": 123 }
            },
            "8": {
                "start": { "line": 29, "column": 25 },
                "end": { "line": 29, "column": 87 }
            },
            "9": {
                "start": { "line": 30, "column": 8 },
                "end": { "line": 30, "column": 30 }
            },
            "10": {
                "start": { "line": 34, "column": 0 },
                "end": { "line": 34, "column": 28 }
            }
        },
        "fnMap": {
            "0": {
                "name": "(anonymous_0)",
                "decl": {
                    "start": { "line": 5, "column": 4 },
                    "end": { "line": 5, "column": 5 }
                },
                "loc": {
                    "start": { "line": 5, "column": 17 },
                    "end": { "line": 8, "column": 5 }
                },
                "line": 5
            },
            "1": {
                "name": "(anonymous_1)",
                "decl": {
                    "start": { "line": 10, "column": 4 },
                    "end": { "line": 10, "column": 5 }
                },
                "loc": {
                    "start": { "line": 10, "column": 53 },
                    "end": { "line": 23, "column": 5 }
                },
                "line": 10
            },
            "2": {
                "name": "(anonymous_2)",
                "decl": {
                    "start": { "line": 25, "column": 4 },
                    "end": { "line": 25, "column": 5 }
                },
                "loc": {
                    "start": { "line": 25, "column": 38 },
                    "end": { "line": 31, "column": 5 }
                },
                "line": 25
            }
        },
        "branchMap": {
            "0": {
                "loc": {
                    "start": { "line": 13, "column": 19 },
                    "end": { "line": 13, "column": 67 }
                },
                "type": "cond-expr",
                "locations": [
                    {
                        "start": { "line": 13, "column": 31 },
                        "end": { "line": 13, "column": 62 }
                    },
                    {
                        "start": { "line": 13, "column": 65 },
                        "end": { "line": 13, "column": 67 }
                    }
                ],
                "line": 13
            },
            "1": {
                "loc": {
                    "start": { "line": 22, "column": 15 },
                    "end": { "line": 22, "column": 26 }
                },
                "type": "binary-expr",
                "locations": [
                    {
                        "start": { "line": 22, "column": 15 },
                        "end": { "line": 22, "column": 20 }
                    },
                    {
                        "start": { "line": 22, "column": 24 },
                        "end": { "line": 22, "column": 26 }
                    }
                ],
                "line": 22
            },
            "2": {
                "loc": {
                    "start": { "line": 25, "column": 23 },
                    "end": { "line": 25, "column": 36 }
                },
                "type": "default-arg",
                "locations": [
                    {
                        "start": { "line": 25, "column": 33 },
                        "end": { "line": 25, "column": 36 }
                    }
                ],
                "line": 25
            },
            "3": {
                "loc": {
                    "start": { "line": 30, "column": 15 },
                    "end": { "line": 30, "column": 29 }
                },
                "type": "binary-expr",
                "locations": [
                    {
                        "start": { "line": 30, "column": 15 },
                        "end": { "line": 30, "column": 23 }
                    },
                    {
                        "start": { "line": 30, "column": 27 },
                        "end": { "line": 30, "column": 29 }
                    }
                ],
                "line": 30
            }
        },
        "s": {
            "0": 2,
            "1": 2,
            "2": 2,
            "3": 2,
            "4": 0,
            "5": 0,
            "6": 0,
            "7": 0,
            "8": 0,
            "9": 0,
            "10": 2
        },
        "f": { "0": 2, "1": 0, "2": 0 },
        "b": { "0": [0, 0], "1": [0, 0], "2": [0], "3": [0, 0] },
        "_coverageSchema": "1a1c01bbd47fc00a2c39e90264f33305004495a9",
        "hash": "4b27fcc75765e2b12d6309b71e10d3a426b0cfac",
        "contentHash": "c92c98873b0d32bc2aa43da051562f9f5823fa5ffabc228b7fd68c2d11874344"
    },
    "D:\\Platzi\\hn-api\\lib\\mongo.js": {
        "path": "D:\\Platzi\\hn-api\\lib\\mongo.js",
        "statementMap": {
            "0": {
                "start": { "line": 1, "column": 34 },
                "end": { "line": 1, "column": 52 }
            },
            "1": {
                "start": { "line": 2, "column": 15 },
                "end": { "line": 2, "column": 41 }
            },
            "2": {
                "start": { "line": 6, "column": 8 },
                "end": { "line": 6, "column": 108 }
            },
            "3": {
                "start": { "line": 7, "column": 8 },
                "end": { "line": 7, "column": 35 }
            },
            "4": {
                "start": { "line": 11, "column": 8 },
                "end": { "line": 21, "column": 9 }
            },
            "5": {
                "start": { "line": 12, "column": 12 },
                "end": { "line": 20, "column": 15 }
            },
            "6": {
                "start": { "line": 13, "column": 16 },
                "end": { "line": 19, "column": 18 }
            },
            "7": {
                "start": { "line": 14, "column": 20 },
                "end": { "line": 16, "column": 21 }
            },
            "8": {
                "start": { "line": 15, "column": 24 },
                "end": { "line": 15, "column": 36 }
            },
            "9": {
                "start": { "line": 18, "column": 20 },
                "end": { "line": 18, "column": 57 }
            },
            "10": {
                "start": { "line": 23, "column": 8 },
                "end": { "line": 23, "column": 35 }
            },
            "11": {
                "start": { "line": 27, "column": 8 },
                "end": { "line": 29, "column": 10 }
            },
            "12": {
                "start": { "line": 28, "column": 12 },
                "end": { "line": 28, "column": 67 }
            },
            "13": {
                "start": { "line": 34, "column": 20 },
                "end": { "line": 34, "column": 39 }
            },
            "14": {
                "start": { "line": 35, "column": 19 },
                "end": { "line": 35, "column": 46 }
            },
            "15": {
                "start": { "line": 36, "column": 22 },
                "end": { "line": 36, "column": 53 }
            },
            "16": {
                "start": { "line": 37, "column": 23 },
                "end": { "line": 37, "column": 51 }
            },
            "17": {
                "start": { "line": 38, "column": 18 },
                "end": { "line": 38, "column": 40 }
            },
            "18": {
                "start": { "line": 40, "column": 19 },
                "end": { "line": 40, "column": 21 }
            },
            "19": {
                "start": { "line": 41, "column": 8 },
                "end": { "line": 41, "column": 29 }
            },
            "20": {
                "start": { "line": 43, "column": 8 },
                "end": { "line": 61, "column": 10 }
            },
            "21": {
                "start": { "line": 45, "column": 23 },
                "end": { "line": 49, "column": 39 }
            },
            "22": {
                "start": { "line": 51, "column": 24 },
                "end": { "line": 51, "column": 44 }
            },
            "23": {
                "start": { "line": 52, "column": 24 },
                "end": { "line": 52, "column": 42 }
            },
            "24": {
                "start": { "line": 54, "column": 12 },
                "end": { "line": 60, "column": 13 }
            },
            "25": {
                "start": { "line": 65, "column": 8 },
                "end": { "line": 67, "column": 46 }
            },
            "26": {
                "start": { "line": 66, "column": 12 },
                "end": { "line": 66, "column": 61 }
            },
            "27": {
                "start": { "line": 67, "column": 27 },
                "end": { "line": 67, "column": 44 }
            },
            "28": {
                "start": { "line": 72, "column": 8 },
                "end": { "line": 94, "column": 10 }
            },
            "29": {
                "start": { "line": 78, "column": 12 },
                "end": { "line": 78, "column": 89 }
            },
            "30": {
                "start": { "line": 80, "column": 12 },
                "end": { "line": 82, "column": 107 }
            },
            "31": {
                "start": { "line": 82, "column": 32 },
                "end": { "line": 82, "column": 104 }
            },
            "32": {
                "start": { "line": 86, "column": 12 },
                "end": { "line": 91, "column": 13 }
            },
            "33": {
                "start": { "line": 87, "column": 16 },
                "end": { "line": 90, "column": 17 }
            },
            "34": {
                "start": { "line": 93, "column": 12 },
                "end": { "line": 93, "column": 25 }
            },
            "35": {
                "start": { "line": 99, "column": 0 },
                "end": { "line": 99, "column": 26 }
            }
        },
        "fnMap": {
            "0": {
                "name": "(anonymous_0)",
                "decl": {
                    "start": { "line": 5, "column": 4 },
                    "end": { "line": 5, "column": 5 }
                },
                "loc": {
                    "start": { "line": 5, "column": 17 },
                    "end": { "line": 8, "column": 5 }
                },
                "line": 5
            },
            "1": {
                "name": "(anonymous_1)",
                "decl": {
                    "start": { "line": 10, "column": 4 },
                    "end": { "line": 10, "column": 5 }
                },
                "loc": {
                    "start": { "line": 10, "column": 13 },
                    "end": { "line": 24, "column": 5 }
                },
                "line": 10
            },
            "2": {
                "name": "(anonymous_2)",
                "decl": {
                    "start": { "line": 12, "column": 46 },
                    "end": { "line": 12, "column": 47 }
                },
                "loc": {
                    "start": { "line": 12, "column": 67 },
                    "end": { "line": 20, "column": 13 }
                },
                "line": 12
            },
            "3": {
                "name": "(anonymous_3)",
                "decl": {
                    "start": { "line": 13, "column": 36 },
                    "end": { "line": 13, "column": 37 }
                },
                "loc": {
                    "start": { "line": 13, "column": 43 },
                    "end": { "line": 19, "column": 17 }
                },
                "line": 13
            },
            "4": {
                "name": "(anonymous_4)",
                "decl": {
                    "start": { "line": 26, "column": 4 },
                    "end": { "line": 26, "column": 5 }
                },
                "loc": {
                    "start": { "line": 26, "column": 29 },
                    "end": { "line": 30, "column": 5 }
                },
                "line": 26
            },
            "5": {
                "name": "(anonymous_5)",
                "decl": {
                    "start": { "line": 27, "column": 28 },
                    "end": { "line": 27, "column": 29 }
                },
                "loc": {
                    "start": { "line": 27, "column": 34 },
                    "end": { "line": 29, "column": 9 }
                },
                "line": 27
            },
            "6": {
                "name": "(anonymous_6)",
                "decl": {
                    "start": { "line": 32, "column": 4 },
                    "end": { "line": 32, "column": 5 }
                },
                "loc": {
                    "start": { "line": 32, "column": 28 },
                    "end": { "line": 62, "column": 5 }
                },
                "line": 32
            },
            "7": {
                "name": "(anonymous_7)",
                "decl": {
                    "start": { "line": 43, "column": 36 },
                    "end": { "line": 43, "column": 37 }
                },
                "loc": {
                    "start": { "line": 43, "column": 50 },
                    "end": { "line": 61, "column": 9 }
                },
                "line": 43
            },
            "8": {
                "name": "(anonymous_8)",
                "decl": {
                    "start": { "line": 64, "column": 4 },
                    "end": { "line": 64, "column": 5 }
                },
                "loc": {
                    "start": { "line": 64, "column": 28 },
                    "end": { "line": 68, "column": 5 }
                },
                "line": 64
            },
            "9": {
                "name": "(anonymous_9)",
                "decl": {
                    "start": { "line": 65, "column": 35 },
                    "end": { "line": 65, "column": 36 }
                },
                "loc": {
                    "start": { "line": 65, "column": 41 },
                    "end": { "line": 67, "column": 9 }
                },
                "line": 65
            },
            "10": {
                "name": "(anonymous_10)",
                "decl": {
                    "start": { "line": 67, "column": 17 },
                    "end": { "line": 67, "column": 18 }
                },
                "loc": {
                    "start": { "line": 67, "column": 27 },
                    "end": { "line": 67, "column": 44 }
                },
                "line": 67
            },
            "11": {
                "name": "(anonymous_11)",
                "decl": {
                    "start": { "line": 70, "column": 4 },
                    "end": { "line": 70, "column": 5 }
                },
                "loc": {
                    "start": { "line": 70, "column": 32 },
                    "end": { "line": 95, "column": 5 }
                },
                "line": 70
            },
            "12": {
                "name": "(anonymous_12)",
                "decl": {
                    "start": { "line": 72, "column": 35 },
                    "end": { "line": 72, "column": 36 }
                },
                "loc": {
                    "start": { "line": 72, "column": 41 },
                    "end": { "line": 84, "column": 9 }
                },
                "line": 72
            },
            "13": {
                "name": "(anonymous_13)",
                "decl": {
                    "start": { "line": 82, "column": 20 },
                    "end": { "line": 82, "column": 21 }
                },
                "loc": {
                    "start": { "line": 82, "column": 32 },
                    "end": { "line": 82, "column": 104 }
                },
                "line": 82
            },
            "14": {
                "name": "(anonymous_14)",
                "decl": {
                    "start": { "line": 84, "column": 17 },
                    "end": { "line": 84, "column": 18 }
                },
                "loc": {
                    "start": { "line": 84, "column": 26 },
                    "end": { "line": 94, "column": 9 }
                },
                "line": 84
            }
        },
        "branchMap": {
            "0": {
                "loc": {
                    "start": { "line": 11, "column": 8 },
                    "end": { "line": 21, "column": 9 }
                },
                "type": "if",
                "locations": [
                    {
                        "start": { "line": 11, "column": 8 },
                        "end": { "line": 21, "column": 9 }
                    },
                    {
                        "start": { "line": 11, "column": 8 },
                        "end": { "line": 21, "column": 9 }
                    }
                ],
                "line": 11
            },
            "1": {
                "loc": {
                    "start": { "line": 14, "column": 20 },
                    "end": { "line": 16, "column": 21 }
                },
                "type": "if",
                "locations": [
                    {
                        "start": { "line": 14, "column": 20 },
                        "end": { "line": 16, "column": 21 }
                    },
                    {
                        "start": { "line": 14, "column": 20 },
                        "end": { "line": 16, "column": 21 }
                    }
                ],
                "line": 14
            },
            "2": {
                "loc": {
                    "start": { "line": 34, "column": 20 },
                    "end": { "line": 34, "column": 39 }
                },
                "type": "binary-expr",
                "locations": [
                    {
                        "start": { "line": 34, "column": 20 },
                        "end": { "line": 34, "column": 33 }
                    },
                    {
                        "start": { "line": 34, "column": 37 },
                        "end": { "line": 34, "column": 39 }
                    }
                ],
                "line": 34
            },
            "3": {
                "loc": {
                    "start": { "line": 35, "column": 19 },
                    "end": { "line": 35, "column": 46 }
                },
                "type": "binary-expr",
                "locations": [
                    {
                        "start": { "line": 35, "column": 19 },
                        "end": { "line": 35, "column": 41 }
                    },
                    {
                        "start": { "line": 35, "column": 45 },
                        "end": { "line": 35, "column": 46 }
                    }
                ],
                "line": 35
            },
            "4": {
                "loc": {
                    "start": { "line": 36, "column": 22 },
                    "end": { "line": 36, "column": 53 }
                },
                "type": "binary-expr",
                "locations": [
                    {
                        "start": { "line": 36, "column": 22 },
                        "end": { "line": 36, "column": 47 }
                    },
                    {
                        "start": { "line": 36, "column": 51 },
                        "end": { "line": 36, "column": 53 }
                    }
                ],
                "line": 36
            },
            "5": {
                "loc": {
                    "start": { "line": 37, "column": 23 },
                    "end": { "line": 37, "column": 51 }
                },
                "type": "binary-expr",
                "locations": [
                    {
                        "start": { "line": 37, "column": 23 },
                        "end": { "line": 37, "column": 35 }
                    },
                    {
                        "start": { "line": 37, "column": 39 },
                        "end": { "line": 37, "column": 51 }
                    }
                ],
                "line": 37
            },
            "6": {
                "loc": {
                    "start": { "line": 38, "column": 18 },
                    "end": { "line": 38, "column": 40 }
                },
                "type": "cond-expr",
                "locations": [
                    {
                        "start": { "line": 38, "column": 34 },
                        "end": { "line": 38, "column": 35 }
                    },
                    {
                        "start": { "line": 38, "column": 38 },
                        "end": { "line": 38, "column": 40 }
                    }
                ],
                "line": 38
            },
            "7": {
                "loc": {
                    "start": { "line": 86, "column": 12 },
                    "end": { "line": 91, "column": 13 }
                },
                "type": "if",
                "locations": [
                    {
                        "start": { "line": 86, "column": 12 },
                        "end": { "line": 91, "column": 13 }
                    },
                    {
                        "start": { "line": 86, "column": 12 },
                        "end": { "line": 91, "column": 13 }
                    }
                ],
                "line": 86
            }
        },
        "s": {
            "0": 1,
            "1": 1,
            "2": 1,
            "3": 1,
            "4": 0,
            "5": 0,
            "6": 0,
            "7": 0,
            "8": 0,
            "9": 0,
            "10": 0,
            "11": 0,
            "12": 0,
            "13": 0,
            "14": 0,
            "15": 0,
            "16": 0,
            "17": 0,
            "18": 0,
            "19": 0,
            "20": 0,
            "21": 0,
            "22": 0,
            "23": 0,
            "24": 0,
            "25": 0,
            "26": 0,
            "27": 0,
            "28": 0,
            "29": 0,
            "30": 0,
            "31": 0,
            "32": 0,
            "33": 0,
            "34": 0,
            "35": 1
        },
        "f": {
            "0": 1,
            "1": 0,
            "2": 0,
            "3": 0,
            "4": 0,
            "5": 0,
            "6": 0,
            "7": 0,
            "8": 0,
            "9": 0,
            "10": 0,
            "11": 0,
            "12": 0,
            "13": 0,
            "14": 0
        },
        "b": {
            "0": [0, 0],
            "1": [0, 0],
            "2": [0, 0],
            "3": [0, 0],
            "4": [0, 0],
            "5": [0, 0],
            "6": [0, 0],
            "7": [0, 0]
        },
        "_coverageSchema": "1a1c01bbd47fc00a2c39e90264f33305004495a9",
        "hash": "9ad7231b709273d63e2580e21a13daf96338a56a",
        "contentHash": "bd4129a5ab151e1df698ed31d16790fb565e747a24d817c6b9149862a355e39c"
    },
    "D:\\Platzi\\hn-api\\utils\\middlewares\\validationHandler.js": {
        "path": "D:\\Platzi\\hn-api\\utils\\middlewares\\validationHandler.js",
        "statementMap": {
            "0": {
                "start": { "line": 1, "column": 13 },
                "end": { "line": 1, "column": 34 }
            },
            "1": {
                "start": { "line": 2, "column": 12 },
                "end": { "line": 2, "column": 32 }
            },
            "2": {
                "start": { "line": 5, "column": 22 },
                "end": { "line": 5, "column": 43 }
            },
            "3": {
                "start": { "line": 6, "column": 4 },
                "end": { "line": 6, "column": 17 }
            },
            "4": {
                "start": { "line": 10, "column": 4 },
                "end": { "line": 14, "column": 5 }
            },
            "5": {
                "start": { "line": 11, "column": 22 },
                "end": { "line": 11, "column": 50 }
            },
            "6": {
                "start": { "line": 13, "column": 8 },
                "end": { "line": 13, "column": 54 }
            },
            "7": {
                "start": { "line": 17, "column": 0 },
                "end": { "line": 17, "column": 35 }
            }
        },
        "fnMap": {
            "0": {
                "name": "validate",
                "decl": {
                    "start": { "line": 4, "column": 9 },
                    "end": { "line": 4, "column": 17 }
                },
                "loc": {
                    "start": { "line": 4, "column": 32 },
                    "end": { "line": 7, "column": 1 }
                },
                "line": 4
            },
            "1": {
                "name": "validationHandler",
                "decl": {
                    "start": { "line": 9, "column": 9 },
                    "end": { "line": 9, "column": 26 }
                },
                "loc": {
                    "start": { "line": 9, "column": 50 },
                    "end": { "line": 15, "column": 1 }
                },
                "line": 9
            },
            "2": {
                "name": "(anonymous_2)",
                "decl": {
                    "start": { "line": 10, "column": 11 },
                    "end": { "line": 10, "column": 12 }
                },
                "loc": {
                    "start": { "line": 10, "column": 35 },
                    "end": { "line": 14, "column": 5 }
                },
                "line": 10
            }
        },
        "branchMap": {
            "0": {
                "loc": {
                    "start": { "line": 9, "column": 35 },
                    "end": { "line": 9, "column": 49 }
                },
                "type": "default-arg",
                "locations": [
                    {
                        "start": { "line": 9, "column": 43 },
                        "end": { "line": 9, "column": 49 }
                    }
                ],
                "line": 9
            },
            "1": {
                "loc": {
                    "start": { "line": 13, "column": 8 },
                    "end": { "line": 13, "column": 53 }
                },
                "type": "cond-expr",
                "locations": [
                    {
                        "start": { "line": 13, "column": 16 },
                        "end": { "line": 13, "column": 44 }
                    },
                    {
                        "start": { "line": 13, "column": 47 },
                        "end": { "line": 13, "column": 53 }
                    }
                ],
                "line": 13
            }
        },
        "s": { "0": 1, "1": 1, "2": 0, "3": 0, "4": 4, "5": 0, "6": 0, "7": 1 },
        "f": { "0": 0, "1": 4, "2": 0 },
        "b": { "0": [0], "1": [0, 0] },
        "_coverageSchema": "1a1c01bbd47fc00a2c39e90264f33305004495a9",
        "hash": "4da4ac8d1e77d9a41d7584884eb2cd7d4a22b1e6",
        "contentHash": "1912e9d021bbeab58794c299ced9d01a4a498b7c3227940ab314afc13670bbbc"
    },
    "D:\\Platzi\\hn-api\\utils\\schemas\\api.js": {
        "path": "D:\\Platzi\\hn-api\\utils\\schemas\\api.js",
        "statementMap": {
            "0": {
                "start": { "line": 1, "column": 12 },
                "end": { "line": 1, "column": 32 }
            },
            "1": {
                "start": { "line": 4, "column": 30 },
                "end": { "line": 4, "column": 63 }
            },
            "2": {
                "start": { "line": 6, "column": 26 },
                "end": { "line": 8, "column": 2 }
            },
            "3": {
                "start": { "line": 10, "column": 25 },
                "end": { "line": 14, "column": 2 }
            },
            "4": {
                "start": { "line": 16, "column": 0 },
                "end": { "line": 19, "column": 1 }
            }
        },
        "fnMap": {},
        "branchMap": {},
        "s": { "0": 1, "1": 1, "2": 1, "3": 1, "4": 1 },
        "f": {},
        "b": {},
        "_coverageSchema": "1a1c01bbd47fc00a2c39e90264f33305004495a9",
        "hash": "5418f34fa6efd226f82f5600d3a51d702efa6d9e",
        "contentHash": "fe27022b3ad3b7ac1a84ee8b79fbcb6bceefbf3e2c6f9c41a8edc2384d5c85e1"
    },
    "D:\\Platzi\\hn-api\\utils\\mocks\\mongo.js": {
        "path": "D:\\Platzi\\hn-api\\utils\\mocks\\mongo.js",
        "statementMap": {
            "0": {
                "start": { "line": 1, "column": 14 },
                "end": { "line": 1, "column": 30 }
            },
            "1": {
                "start": { "line": 3, "column": 39 },
                "end": { "line": 3, "column": 55 }
            },
            "2": {
                "start": { "line": 5, "column": 16 },
                "end": { "line": 5, "column": 28 }
            },
            "3": {
                "start": { "line": 6, "column": 0 },
                "end": { "line": 12, "column": 3 }
            },
            "4": {
                "start": { "line": 14, "column": 23 },
                "end": { "line": 14, "column": 35 }
            },
            "5": {
                "start": { "line": 15, "column": 0 },
                "end": { "line": 18, "column": 3 }
            },
            "6": {
                "start": { "line": 23, "column": 8 },
                "end": { "line": 23, "column": 44 }
            },
            "7": {
                "start": { "line": 27, "column": 8 },
                "end": { "line": 27, "column": 47 }
            },
            "8": {
                "start": { "line": 31, "column": 0 },
                "end": { "line": 36, "column": 1 }
            }
        },
        "fnMap": {
            "0": {
                "name": "(anonymous_0)",
                "decl": {
                    "start": { "line": 22, "column": 4 },
                    "end": { "line": 22, "column": 5 }
                },
                "loc": {
                    "start": { "line": 22, "column": 28 },
                    "end": { "line": 24, "column": 5 }
                },
                "line": 22
            },
            "1": {
                "name": "(anonymous_1)",
                "decl": {
                    "start": { "line": 26, "column": 4 },
                    "end": { "line": 26, "column": 5 }
                },
                "loc": {
                    "start": { "line": 26, "column": 32 },
                    "end": { "line": 28, "column": 5 }
                },
                "line": 26
            }
        },
        "branchMap": {},
        "s": {
            "0": 1,
            "1": 1,
            "2": 1,
            "3": 1,
            "4": 1,
            "5": 1,
            "6": 0,
            "7": 0,
            "8": 1
        },
        "f": { "0": 0, "1": 0 },
        "b": {},
        "_coverageSchema": "1a1c01bbd47fc00a2c39e90264f33305004495a9",
        "hash": "9c772b71dc86cb9f558a89abb62dc86094515d26",
        "contentHash": "97244fc05597089bf8c2a61a82650fc1b6c078b202ffa49a21452844b4531b42"
    }
}
